{
  "pageNumber": 1,
  "pageSize": 10,
  "pageCount": 5,
  "totalCount": 100,
  "items": [
    {
      "id": "6830967285342d045553b95d",
      "name": "Блог обо мне",
      "description": "Блог о том, как не быть придурком, если вы уже придурок",
      "websiteUrl": "https://example.com",
      "createdAt": "2025-05-22T12:34:04.402Z",
      "isMembership": false
    },
    {
      "id": "7830967285342d045553b95d",
      "name": "Блог о ЦМС",
      "description": "Что такое ЦМС и с чем его едят",
      "websiteUrl": "https://youtube.com",
      "createdAt": "2025-04-22T12:34:04.402Z",
      "isMembership": false
    },
    {
      "id": "8830967285342d045553b95d",
      "name": "Блог о Илье",
      "description": "Как круто плавать на сапах",
      "websiteUrl": "https://github.com",
      "createdAt": "2025-04-21T12:34:04.402Z",
      "isMembership": true
    }
  ]
}