{
  "pageNumber": 1,
  "pageSize": 10,
  "pageCount": 5,
  "totalCount": 100,
  "items": [
    {
      "id": "683b5000f0bba410f89171dd",
      "title": "string",
      "shortDescription": "string",
      "content": "string",
      "blogId": "6830967285342d045553b95d",
      "blogName": "string",
      "createdAt": "2025-05-22T12:34:04.402Z"
    },
    {
      "id": "783b5000f0bba410f89171dd",
      "title": "string1",
      "shortDescription": "string1",
      "content": "string1",
      "blogId": "7830967285342d045553b95d",
      "blogName": "string1",
      "createdAt": "2025-04-22T12:34:04.402Z"
    },
    {
      "id": "883b5000f0bba410f89171dd",
      "title": "string2",
      "shortDescription": "string2",
      "content": "string2",
      "blogId": "8830967285342d045553b95d",
      "blogName": "string2",
      "createdAt": "2025-05-22T12:34:04.402Z"
    },
    {
      "id": "983b5000f0bba410f89171dd",
      "title": "string3",
      "shortDescription": "string3",
      "content": "string3",
      "blogId": "930967285342d045553b95d",
      "blogName": "string3",
      "createdAt": "2024-05-21T12:34:04.402Z"
    },
    {
      "id": "103b5000f0bba410f89171dd",
      "title": "string",
      "shortDescription": "string",
      "content": "string",
      "blogId": "1030967285342d045553b95d",
      "blogName": "string",
      "createdAt": "2025-05-22T12:34:04.402Z"
    }
  ]
}